C:\Users\Nick\Desktop\вуз\Технологии_Методы_прогназирования\projMini\src\main\java\new_shop\model\entity\Product.java
C:\Users\Nick\Desktop\вуз\Технологии_Методы_прогназирования\projMini\src\main\java\new_shop\controllers\ProductController.java
C:\Users\Nick\Desktop\вуз\Технологии_Методы_прогназирования\projMini\src\main\java\new_shop\model\repository\ProductRepository.java
C:\Users\Nick\Desktop\вуз\Технологии_Методы_прогназирования\projMini\src\main\java\new_shop\SpringApplicationStart.java
